<svg xmlns="http://www.w3.org/2000/svg" xmlns:xlink="http://www.w3.org/1999/xlink" class="svg-symbol" style="position:absolute;top:-9999px;opacity:0;">
	<symbol viewbox="0 0 100 100" id="use_facebook">
		<path class="st0" d="M50.1,0C22.5-0.1,0.1,22.3,0,49.9S22.3,99.9,49.9,100c27.6,0.1,50.1-22.3,50.1-49.9c0,0,0-0.1,0-0.1
			C100,22.4,77.7,0.1,50.1,0z M62.1,33c-1.2-0.3-2.4-0.5-3.6-0.5c-3.6,0-5.2,2.8-5.2,6.3v1.8h7.1v8.1h-7v27.4H42.3V48.8h-4.6v-8.1h4.7
			v-1.4c0-4.3,1.3-9,4.5-11.9c2.7-2.4,6.2-3.6,9.8-3.6c2,0,4,0.2,5.9,0.7L62.1,33z"/>
	</symbol>
	<symbol viewbox="0 0 100 100" id="use_instagram">
		<path class="st0" d="M57.6,49.9c0-4.3-3.5-7.8-7.8-7.8s-7.8,3.5-7.8,7.8s3.5,7.8,7.8,7.8c0,0,0,0,0,0C54.1,57.6,57.6,54.2,57.6,49.9
			z"/>
		<path class="st0" d="M72.3,34.6c0-3.9-3.2-7.1-7.2-7.1H34.6c-3.9,0-7.1,3.2-7.1,7.1v30.6c0,3.9,3.2,7.1,7.1,7.2h30.6
			c3.9,0,7.1-3.2,7.2-7.2V34.6z M64.8,30.9c2.1,0,3.7,1.7,3.7,3.7s-1.7,3.7-3.7,3.7c-2.1,0-3.7-1.7-3.7-3.7c0,0,0,0,0,0
			C61.1,32.5,62.7,30.9,64.8,30.9z M49.9,62.9c-7.2,0-13-5.8-13-13s5.8-13,13-13s13,5.8,13,13C62.8,57,57,62.8,49.9,62.9L49.9,62.9z"
			/>
		<path class="st0" d="M50,0C22.4,0,0,22.4,0,50s22.4,50,50,50s50-22.4,50-50S77.6,0,50,0z M77.5,65.2c0,6.8-5.5,12.3-12.3,12.3H34.6
			c-6.8,0-12.3-5.5-12.4-12.3V34.6c0-6.8,5.5-12.3,12.4-12.4h30.6c6.8,0,12.3,5.5,12.3,12.4V65.2z"/>
	</symbol>
	<symbol viewbox="0 0 100 100" id="use_twitter">
		<path class="st0" d="M50,0C22.4,0,0,22.4,0,50s22.4,50,50,50s50-22.4,50-50S77.6,0,50,0z M73.6,36.5C83,66.8,56.4,77.2,40.9,75.1
			S21,66.8,21,66.8c1,0.1,1.9,0.2,2.9,0.2c5.4,0,10.7-1.8,14.9-5.1c-5.1-0.1-9.7-3.4-11.2-8.3c1.8,0.4,3.7,0.3,5.4-0.2
			c-5.6-1.1-9.7-6.1-9.6-11.8c0,0,0-0.1,0-0.2c1.7,0.9,3.5,1.4,5.4,1.5c-5.3-3.5-6.9-10.5-3.7-16c6.1,7.5,15.1,12,24.8,12.5
			c-0.2-0.9-0.3-1.8-0.3-2.7c0-6.6,5.3-12,11.9-12.1c3.4,0,6.6,1.4,8.9,3.8c2.7-0.5,5.3-1.5,7.6-2.9c-0.9,2.8-2.8,5.1-5.3,6.6
			c2.2-0.2,4.3-0.7,6.3-1.6C77.6,32.8,75.8,34.9,73.6,36.5z"/>
	</symbol>
</svg>
